[Sun, 12 Nov 2023 16:22:51 GMT] [info] [<0.000.0>] pouchdb-server has started on http://0.0.0.0:10101/
[Sun, 12 Nov 2023 16:22:51 GMT] [info] [<0.000.0>] database is in-memory; no changes will be saved.
[Sun, 12 Nov 2023 16:22:51 GMT] [info] [<0.000.0>] database files will be saved to /tmp/pouchdb-server/
[Sun, 12 Nov 2023 16:22:51 GMT] [info] [<0.000.0>] navigate to http://0.0.0.0:10101/_utils for the Fauxton UI.
[Sun, 12 Nov 2023 16:23:17 GMT] [info] [<0.000.0>] 127.0.0.1 - - PUT /heroes/ 201
[Sun, 12 Nov 2023 16:23:17 GMT] [info] [<0.000.0>] 127.0.0.1 - - GET /heroes/_changes?style=all_docs&feed=normal&include_docs=true&since=0&heartbeat=60000&limit=100&seq_interval=100 304
[Sun, 12 Nov 2023 16:23:17 GMT] [info] [<0.000.0>] 127.0.0.1 - - POST /heroes/_all_docs? 200
[Sun, 12 Nov 2023 16:23:17 GMT] [info] [<0.000.0>] 127.0.0.1 - - POST /heroes/_bulk_docs? 201
[Sun, 12 Nov 2023 16:23:17 GMT] [info] [<0.000.0>] 127.0.0.1 - - GET /heroes/_changes?style=all_docs&feed=longpoll&since=now&include_docs=true&heartbeat=60000&limit=20&seq_interval=20 200
[Sun, 12 Nov 2023 16:23:17 GMT] [info] [<0.000.0>] 127.0.0.1 - - GET /heroes/_changes?style=all_docs&feed=longpoll&since=1&include_docs=true&heartbeat=60000&limit=20&seq_interval=20 200
[Sun, 12 Nov 2023 16:24:12 GMT] [info] [<0.000.0>] 127.0.0.1 - - GET /heroes/_changes?style=all_docs&feed=longpoll&since=3&include_docs=true&heartbeat=60000&limit=20&seq_interval=20 200
[Sun, 12 Nov 2023 16:24:12 GMT] [info] [<0.000.0>] 127.0.0.1 - - PUT /heroes/ 412
[Sun, 12 Nov 2023 16:24:12 GMT] [info] [<0.000.0>] 127.0.0.1 - - GET /heroes/_changes?style=all_docs&feed=normal&include_docs=true&since=3&heartbeat=60000&limit=100&seq_interval=100 200
[Sun, 12 Nov 2023 16:29:19 GMT] [info] [<0.000.0>] pouchdb-server has started on http://0.0.0.0:10101/
[Sun, 12 Nov 2023 16:29:19 GMT] [info] [<0.000.0>] database is in-memory; no changes will be saved.
[Sun, 12 Nov 2023 16:29:19 GMT] [info] [<0.000.0>] database files will be saved to /tmp/pouchdb-server/
[Sun, 12 Nov 2023 16:29:19 GMT] [info] [<0.000.0>] navigate to http://0.0.0.0:10101/_utils for the Fauxton UI.
[Sun, 12 Nov 2023 16:29:21 GMT] [info] [<0.000.0>] 127.0.0.1 - - GET /heroes/_changes?style=all_docs&feed=longpoll&since=now&include_docs=true&heartbeat=60000&limit=20&seq_interval=20 404
[Sun, 12 Nov 2023 16:29:31 GMT] [info] [<0.000.0>] 127.0.0.1 - - PUT /heroes/ 201
[Sun, 12 Nov 2023 16:29:31 GMT] [info] [<0.000.0>] 127.0.0.1 - - GET /heroes/_changes?style=all_docs&feed=normal&include_docs=true&since=3&heartbeat=60000&limit=100&seq_interval=100 304
[Sun, 12 Nov 2023 16:30:09 GMT] [info] [<0.000.0>] 127.0.0.1 - - GET /heroes/_changes?style=all_docs&feed=longpoll&since=now&include_docs=true&heartbeat=60000&limit=20&seq_interval=20 200
[Sun, 12 Nov 2023 16:30:09 GMT] [info] [<0.000.0>] 127.0.0.1 - - GET /heroes/_changes?style=all_docs&feed=longpoll&since=now&include_docs=true&heartbeat=60000&limit=20&seq_interval=20 200
[Sun, 12 Nov 2023 16:30:09 GMT] [info] [<0.000.0>] 127.0.0.1 - - GET / 200
[Sun, 12 Nov 2023 16:30:28 GMT] [info] [<0.000.0>] 127.0.0.1 - - GET /tmp/pouchdb-server/ 404
[Sun, 12 Nov 2023 16:30:32 GMT] [info] [<0.000.0>] 127.0.0.1 - - GET /tmp/pouchdb-server 404
[Sun, 12 Nov 2023 16:30:36 GMT] [info] [<0.000.0>] 127.0.0.1 - - GET /tmp 404
[Sun, 12 Nov 2023 16:30:39 GMT] [info] [<0.000.0>] 127.0.0.1 - - GET / 304
[Sun, 12 Nov 2023 16:30:47 GMT] [info] [<0.000.0>] 127.0.0.1 - - GET /heroes 200
[Sun, 12 Nov 2023 16:39:26 GMT] [info] [<0.000.0>] 127.0.0.1 - - PUT /heroes/ 412
[Sun, 12 Nov 2023 16:39:26 GMT] [info] [<0.000.0>] 127.0.0.1 - - GET /heroes/_changes?style=all_docs&feed=normal&include_docs=true&since=3&heartbeat=60000&limit=100&seq_interval=100 304
[Sun, 12 Nov 2023 16:41:49 GMT] [info] [<0.000.0>] 127.0.0.1 - - GET /heroes/_changes?style=all_docs&feed=longpoll&since=now&include_docs=true&heartbeat=60000&limit=20&seq_interval=20 200
[Sun, 12 Nov 2023 16:41:49 GMT] [info] [<0.000.0>] 127.0.0.1 - - PUT /heroes/ 412
[Sun, 12 Nov 2023 16:41:49 GMT] [info] [<0.000.0>] 127.0.0.1 - - GET /heroes/_changes?style=all_docs&feed=normal&include_docs=true&since=3&heartbeat=60000&limit=100&seq_interval=100 304
[Sun, 12 Nov 2023 16:50:14 GMT] [info] [<0.000.0>] 127.0.0.1 - - GET /heroes/_changes?style=all_docs&feed=longpoll&since=now&include_docs=true&heartbeat=60000&limit=20&seq_interval=20 200
[Sun, 12 Nov 2023 16:50:14 GMT] [info] [<0.000.0>] 127.0.0.1 - - PUT /heroes/ 412
[Sun, 12 Nov 2023 16:50:14 GMT] [info] [<0.000.0>] 127.0.0.1 - - GET /heroes/_changes?style=all_docs&feed=normal&include_docs=true&since=3&heartbeat=60000&limit=100&seq_interval=100 304
[Sun, 12 Nov 2023 16:56:21 GMT] [info] [<0.000.0>] 127.0.0.1 - - GET /heroes/_changes?style=all_docs&feed=longpoll&since=now&include_docs=true&heartbeat=60000&limit=20&seq_interval=20 200
[Sun, 12 Nov 2023 16:56:21 GMT] [info] [<0.000.0>] 127.0.0.1 - - PUT /heroes/ 412
[Sun, 12 Nov 2023 16:56:21 GMT] [info] [<0.000.0>] 127.0.0.1 - - GET /heroes/_changes?style=all_docs&feed=normal&include_docs=true&since=3&heartbeat=60000&limit=100&seq_interval=100 304
[Sun, 12 Nov 2023 17:00:22 GMT] [info] [<0.000.0>] 127.0.0.1 - - GET /heroes/_changes?style=all_docs&feed=longpoll&since=now&include_docs=true&heartbeat=60000&limit=20&seq_interval=20 200
[Sun, 12 Nov 2023 17:00:23 GMT] [info] [<0.000.0>] 127.0.0.1 - - PUT /heroes/ 412
[Sun, 12 Nov 2023 17:00:23 GMT] [info] [<0.000.0>] 127.0.0.1 - - GET /heroes/_changes?style=all_docs&feed=normal&include_docs=true&since=3&heartbeat=60000&limit=100&seq_interval=100 304
[Sun, 12 Nov 2023 17:01:21 GMT] [info] [<0.000.0>] 127.0.0.1 - - GET /heroes/_changes?style=all_docs&feed=longpoll&since=now&include_docs=true&heartbeat=60000&limit=20&seq_interval=20 200
[Sun, 12 Nov 2023 17:01:21 GMT] [info] [<0.000.0>] 127.0.0.1 - - PUT /heroes/ 412
[Sun, 12 Nov 2023 17:01:21 GMT] [info] [<0.000.0>] 127.0.0.1 - - GET /heroes/_changes?style=all_docs&feed=normal&include_docs=true&since=3&heartbeat=60000&limit=100&seq_interval=100 304
[Sun, 12 Nov 2023 17:01:33 GMT] [info] [<0.000.0>] 127.0.0.1 - - GET /heroes/_changes?style=all_docs&feed=longpoll&since=now&include_docs=true&heartbeat=60000&limit=20&seq_interval=20 200
[Sun, 12 Nov 2023 17:01:34 GMT] [info] [<0.000.0>] 127.0.0.1 - - PUT /heroes/ 412
[Sun, 12 Nov 2023 17:01:34 GMT] [info] [<0.000.0>] 127.0.0.1 - - GET /heroes/_changes?style=all_docs&feed=normal&include_docs=true&since=3&heartbeat=60000&limit=100&seq_interval=100 304
[Sun, 12 Nov 2023 17:02:56 GMT] [info] [<0.000.0>] 127.0.0.1 - - GET /heroes/_changes?style=all_docs&feed=longpoll&since=now&include_docs=true&heartbeat=60000&limit=20&seq_interval=20 200
[Sun, 12 Nov 2023 17:02:57 GMT] [info] [<0.000.0>] 127.0.0.1 - - PUT /heroes/ 412
[Sun, 12 Nov 2023 17:02:57 GMT] [info] [<0.000.0>] 127.0.0.1 - - GET /heroes/_changes?style=all_docs&feed=normal&include_docs=true&since=3&heartbeat=60000&limit=100&seq_interval=100 304
[Sun, 12 Nov 2023 17:05:18 GMT] [info] [<0.000.0>] 127.0.0.1 - - GET /heroes/_changes?style=all_docs&feed=longpoll&since=now&include_docs=true&heartbeat=60000&limit=20&seq_interval=20 200
[Sun, 12 Nov 2023 17:05:18 GMT] [info] [<0.000.0>] 127.0.0.1 - - PUT /heroes/ 412
[Sun, 12 Nov 2023 17:05:18 GMT] [info] [<0.000.0>] 127.0.0.1 - - GET /heroes/_changes?style=all_docs&feed=normal&include_docs=true&since=3&heartbeat=60000&limit=100&seq_interval=100 304
[Sun, 12 Nov 2023 17:05:41 GMT] [info] [<0.000.0>] 127.0.0.1 - - GET /heroes/_changes?style=all_docs&feed=longpoll&since=now&include_docs=true&heartbeat=60000&limit=20&seq_interval=20 200
[Sun, 12 Nov 2023 17:05:42 GMT] [info] [<0.000.0>] 127.0.0.1 - - PUT /heroes/ 412
[Sun, 12 Nov 2023 17:05:42 GMT] [info] [<0.000.0>] 127.0.0.1 - - GET /heroes/_changes?style=all_docs&feed=normal&include_docs=true&since=3&heartbeat=60000&limit=100&seq_interval=100 304
[Sun, 12 Nov 2023 17:07:26 GMT] [info] [<0.000.0>] 127.0.0.1 - - GET /heroes/_changes?style=all_docs&feed=longpoll&since=now&include_docs=true&heartbeat=60000&limit=20&seq_interval=20 200
[Sun, 12 Nov 2023 17:07:27 GMT] [info] [<0.000.0>] 127.0.0.1 - - PUT /heroes/ 412
[Sun, 12 Nov 2023 17:07:27 GMT] [info] [<0.000.0>] 127.0.0.1 - - GET /heroes/_changes?style=all_docs&feed=normal&include_docs=true&since=3&heartbeat=60000&limit=100&seq_interval=100 304
[Sun, 12 Nov 2023 17:08:44 GMT] [info] [<0.000.0>] 127.0.0.1 - - GET /heroes/_changes?style=all_docs&feed=longpoll&since=now&include_docs=true&heartbeat=60000&limit=20&seq_interval=20 200
[Sun, 12 Nov 2023 17:08:44 GMT] [info] [<0.000.0>] 127.0.0.1 - - PUT /heroes/ 412
[Sun, 12 Nov 2023 17:08:45 GMT] [info] [<0.000.0>] 127.0.0.1 - - GET /heroes/_changes?style=all_docs&feed=normal&include_docs=true&since=3&heartbeat=60000&limit=100&seq_interval=100 304
[Sun, 12 Nov 2023 17:13:01 GMT] [info] [<0.000.0>] 127.0.0.1 - - GET /heroes/_changes?style=all_docs&feed=longpoll&since=now&include_docs=true&heartbeat=60000&limit=20&seq_interval=20 200
[Sun, 12 Nov 2023 17:13:01 GMT] [info] [<0.000.0>] 127.0.0.1 - - PUT /heroes/ 412
[Sun, 12 Nov 2023 17:13:01 GMT] [info] [<0.000.0>] 127.0.0.1 - - GET /heroes/_changes?style=all_docs&feed=normal&include_docs=true&since=3&heartbeat=60000&limit=100&seq_interval=100 304
[Sun, 12 Nov 2023 17:13:21 GMT] [info] [<0.000.0>] 127.0.0.1 - - GET /heroes/_changes?style=all_docs&feed=longpoll&since=now&include_docs=true&heartbeat=60000&limit=20&seq_interval=20 200
[Sun, 12 Nov 2023 17:13:22 GMT] [info] [<0.000.0>] 127.0.0.1 - - PUT /heroes/ 412
[Sun, 12 Nov 2023 17:13:22 GMT] [info] [<0.000.0>] 127.0.0.1 - - GET /heroes/_changes?style=all_docs&feed=normal&include_docs=true&since=3&heartbeat=60000&limit=100&seq_interval=100 304
[Sun, 12 Nov 2023 17:13:45 GMT] [info] [<0.000.0>] 127.0.0.1 - - GET /heroes/_changes?style=all_docs&feed=longpoll&since=now&include_docs=true&heartbeat=60000&limit=20&seq_interval=20 200
[Sun, 12 Nov 2023 17:13:45 GMT] [info] [<0.000.0>] 127.0.0.1 - - PUT /heroes/ 412
[Sun, 12 Nov 2023 17:13:46 GMT] [info] [<0.000.0>] 127.0.0.1 - - GET /heroes/_changes?style=all_docs&feed=normal&include_docs=true&since=3&heartbeat=60000&limit=100&seq_interval=100 304
[Sun, 12 Nov 2023 17:14:41 GMT] [info] [<0.000.0>] 127.0.0.1 - - GET /heroes/_changes?style=all_docs&feed=longpoll&since=now&include_docs=true&heartbeat=60000&limit=20&seq_interval=20 200
[Sun, 12 Nov 2023 17:14:41 GMT] [info] [<0.000.0>] 127.0.0.1 - - PUT /heroes/ 412
[Sun, 12 Nov 2023 17:14:41 GMT] [info] [<0.000.0>] 127.0.0.1 - - GET /heroes/_changes?style=all_docs&feed=normal&include_docs=true&since=3&heartbeat=60000&limit=100&seq_interval=100 304
[Sun, 12 Nov 2023 17:15:08 GMT] [info] [<0.000.0>] pouchdb-server has started on http://0.0.0.0:10101/
[Sun, 12 Nov 2023 17:15:08 GMT] [info] [<0.000.0>] database is in-memory; no changes will be saved.
[Sun, 12 Nov 2023 17:15:08 GMT] [info] [<0.000.0>] database files will be saved to /tmp/pouchdb-server/
[Sun, 12 Nov 2023 17:15:08 GMT] [info] [<0.000.0>] navigate to http://0.0.0.0:10101/_utils for the Fauxton UI.
[Sun, 12 Nov 2023 17:15:13 GMT] [info] [<0.000.0>] 127.0.0.1 - - GET /heroes/_changes?style=all_docs&feed=longpoll&since=now&include_docs=true&heartbeat=60000&limit=20&seq_interval=20 404
[Sun, 12 Nov 2023 17:17:05 GMT] [info] [<0.000.0>] pouchdb-server has started on http://0.0.0.0:10101/
[Sun, 12 Nov 2023 17:17:05 GMT] [info] [<0.000.0>] database is in-memory; no changes will be saved.
[Sun, 12 Nov 2023 17:17:05 GMT] [info] [<0.000.0>] database files will be saved to /tmp/pouchdb-server/
[Sun, 12 Nov 2023 17:17:05 GMT] [info] [<0.000.0>] navigate to http://0.0.0.0:10101/_utils for the Fauxton UI.
[Sun, 12 Nov 2023 17:17:07 GMT] [info] [<0.000.0>] 127.0.0.1 - - PUT /heroes/ 201
[Sun, 12 Nov 2023 17:17:07 GMT] [info] [<0.000.0>] 127.0.0.1 - - GET /heroes/_changes?style=all_docs&feed=normal&include_docs=true&since=3&heartbeat=60000&limit=100&seq_interval=100 304
[Sun, 12 Nov 2023 17:24:16 GMT] [info] [<0.000.0>] 127.0.0.1 - - GET /heroes/_changes?style=all_docs&feed=longpoll&since=now&include_docs=true&heartbeat=60000&limit=20&seq_interval=20 200
[Sun, 12 Nov 2023 17:24:16 GMT] [info] [<0.000.0>] 127.0.0.1 - - PUT /heroes/ 412
[Sun, 12 Nov 2023 17:24:16 GMT] [info] [<0.000.0>] 127.0.0.1 - - GET /heroes/_changes?style=all_docs&feed=normal&include_docs=true&since=3&heartbeat=60000&limit=100&seq_interval=100 304
[Sun, 12 Nov 2023 17:24:26 GMT] [info] [<0.000.0>] 127.0.0.1 - - GET /heroes/_changes?style=all_docs&feed=longpoll&since=now&include_docs=true&heartbeat=60000&limit=20&seq_interval=20 200
[Sun, 12 Nov 2023 17:24:26 GMT] [info] [<0.000.0>] 127.0.0.1 - - PUT /heroes/ 412
[Sun, 12 Nov 2023 17:24:26 GMT] [info] [<0.000.0>] 127.0.0.1 - - GET /heroes/_changes?style=all_docs&feed=normal&include_docs=true&since=3&heartbeat=60000&limit=100&seq_interval=100 304
[Sun, 12 Nov 2023 17:27:45 GMT] [info] [<0.000.0>] 127.0.0.1 - - GET /heroes/_changes?style=all_docs&feed=longpoll&since=now&include_docs=true&heartbeat=60000&limit=20&seq_interval=20 200
[Sun, 12 Nov 2023 17:27:45 GMT] [info] [<0.000.0>] 127.0.0.1 - - PUT /heroes/ 412
[Sun, 12 Nov 2023 17:27:45 GMT] [info] [<0.000.0>] 127.0.0.1 - - GET /heroes/_changes?style=all_docs&feed=normal&include_docs=true&since=3&heartbeat=60000&limit=100&seq_interval=100 304
[Sun, 12 Nov 2023 17:28:51 GMT] [info] [<0.000.0>] 127.0.0.1 - - GET /heroes/_changes?style=all_docs&feed=longpoll&since=now&include_docs=true&heartbeat=60000&limit=20&seq_interval=20 200
[Sun, 12 Nov 2023 17:28:51 GMT] [info] [<0.000.0>] 127.0.0.1 - - PUT /heroes/ 412
[Sun, 12 Nov 2023 17:28:51 GMT] [info] [<0.000.0>] 127.0.0.1 - - GET /heroes/_changes?style=all_docs&feed=normal&include_docs=true&since=3&heartbeat=60000&limit=100&seq_interval=100 304
[Sun, 12 Nov 2023 17:30:00 GMT] [info] [<0.000.0>] 127.0.0.1 - - GET /heroes/_changes?style=all_docs&feed=longpoll&since=now&include_docs=true&heartbeat=60000&limit=20&seq_interval=20 200
[Sun, 12 Nov 2023 17:30:00 GMT] [info] [<0.000.0>] 127.0.0.1 - - PUT /heroes/ 412
[Sun, 12 Nov 2023 17:30:00 GMT] [info] [<0.000.0>] 127.0.0.1 - - GET /heroes/_changes?style=all_docs&feed=normal&include_docs=true&since=3&heartbeat=60000&limit=100&seq_interval=100 304
[Sun, 12 Nov 2023 17:30:57 GMT] [info] [<0.000.0>] 127.0.0.1 - - GET /heroes/_changes?style=all_docs&feed=longpoll&since=now&include_docs=true&heartbeat=60000&limit=20&seq_interval=20 200
[Sun, 12 Nov 2023 17:30:57 GMT] [info] [<0.000.0>] 127.0.0.1 - - PUT /heroes/ 412
[Sun, 12 Nov 2023 17:30:57 GMT] [info] [<0.000.0>] 127.0.0.1 - - GET /heroes/_changes?style=all_docs&feed=normal&include_docs=true&since=3&heartbeat=60000&limit=100&seq_interval=100 304
[Sun, 12 Nov 2023 17:31:34 GMT] [info] [<0.000.0>] 127.0.0.1 - - GET /heroes/_changes?style=all_docs&feed=longpoll&since=now&include_docs=true&heartbeat=60000&limit=20&seq_interval=20 200
[Sun, 12 Nov 2023 17:31:35 GMT] [info] [<0.000.0>] 127.0.0.1 - - PUT /heroes/ 412
[Sun, 12 Nov 2023 17:31:35 GMT] [info] [<0.000.0>] 127.0.0.1 - - GET /heroes/_changes?style=all_docs&feed=normal&include_docs=true&since=3&heartbeat=60000&limit=100&seq_interval=100 304
[Sun, 12 Nov 2023 17:33:39 GMT] [info] [<0.000.0>] 127.0.0.1 - - GET /heroes/_changes?style=all_docs&feed=longpoll&since=now&include_docs=true&heartbeat=60000&limit=20&seq_interval=20 200
[Sun, 12 Nov 2023 17:33:39 GMT] [info] [<0.000.0>] 127.0.0.1 - - PUT /heroes/ 412
[Sun, 12 Nov 2023 17:33:39 GMT] [info] [<0.000.0>] 127.0.0.1 - - GET /heroes/_changes?style=all_docs&feed=normal&include_docs=true&since=3&heartbeat=60000&limit=100&seq_interval=100 304
[Sun, 12 Nov 2023 17:33:59 GMT] [info] [<0.000.0>] 127.0.0.1 - - GET /heroes/_changes?style=all_docs&feed=longpoll&since=now&include_docs=true&heartbeat=60000&limit=20&seq_interval=20 200
[Sun, 12 Nov 2023 17:33:59 GMT] [info] [<0.000.0>] 127.0.0.1 - - PUT /heroes/ 412
[Sun, 12 Nov 2023 17:33:59 GMT] [info] [<0.000.0>] 127.0.0.1 - - GET /heroes/_changes?style=all_docs&feed=normal&include_docs=true&since=3&heartbeat=60000&limit=100&seq_interval=100 304
[Sun, 12 Nov 2023 17:37:14 GMT] [info] [<0.000.0>] 127.0.0.1 - - GET /heroes/_changes?style=all_docs&feed=longpoll&since=now&include_docs=true&heartbeat=60000&limit=20&seq_interval=20 200
[Sun, 12 Nov 2023 17:37:14 GMT] [info] [<0.000.0>] 127.0.0.1 - - PUT /heroes/ 412
[Sun, 12 Nov 2023 17:37:14 GMT] [info] [<0.000.0>] 127.0.0.1 - - GET /heroes/_changes?style=all_docs&feed=normal&include_docs=true&since=3&heartbeat=60000&limit=100&seq_interval=100 304
[Sun, 12 Nov 2023 17:40:05 GMT] [info] [<0.000.0>] 127.0.0.1 - - GET /heroes/_changes?style=all_docs&feed=longpoll&since=now&include_docs=true&heartbeat=60000&limit=20&seq_interval=20 200
[Sun, 12 Nov 2023 17:40:05 GMT] [info] [<0.000.0>] 127.0.0.1 - - PUT /heroes/ 412
[Sun, 12 Nov 2023 17:40:05 GMT] [info] [<0.000.0>] 127.0.0.1 - - GET /heroes/_changes?style=all_docs&feed=normal&include_docs=true&since=3&heartbeat=60000&limit=100&seq_interval=100 304
[Sun, 12 Nov 2023 17:42:31 GMT] [info] [<0.000.0>] 127.0.0.1 - - GET /heroes/_changes?style=all_docs&feed=longpoll&since=now&include_docs=true&heartbeat=60000&limit=20&seq_interval=20 200
[Sun, 12 Nov 2023 17:42:32 GMT] [info] [<0.000.0>] 127.0.0.1 - - PUT /heroes/ 412
[Sun, 12 Nov 2023 17:42:34 GMT] [info] [<0.000.0>] 127.0.0.1 - - GET /heroes/_changes?style=all_docs&feed=normal&include_docs=true&since=3&heartbeat=60000&limit=100&seq_interval=100 304
[Sun, 12 Nov 2023 18:43:13 GMT] [info] [<0.000.0>] 127.0.0.1 - - GET /heroes/_changes?style=all_docs&feed=longpoll&since=now&include_docs=true&heartbeat=60000&limit=20&seq_interval=20 200
[Sun, 12 Nov 2023 18:43:14 GMT] [info] [<0.000.0>] 127.0.0.1 - - PUT /heroes/ 412
[Sun, 12 Nov 2023 18:43:14 GMT] [info] [<0.000.0>] 127.0.0.1 - - GET /heroes/_changes?style=all_docs&feed=normal&include_docs=true&since=3&heartbeat=60000&limit=100&seq_interval=100 304
[Sun, 12 Nov 2023 18:54:48 GMT] [info] [<0.000.0>] 127.0.0.1 - - GET /heroes/_changes?style=all_docs&feed=longpoll&since=now&include_docs=true&heartbeat=60000&limit=20&seq_interval=20 200
[Sun, 12 Nov 2023 18:54:49 GMT] [info] [<0.000.0>] 127.0.0.1 - - PUT /heroes/ 412
[Sun, 12 Nov 2023 18:54:49 GMT] [info] [<0.000.0>] 127.0.0.1 - - GET /heroes/_changes?style=all_docs&feed=normal&include_docs=true&since=3&heartbeat=60000&limit=100&seq_interval=100 304
[Sun, 12 Nov 2023 18:56:00 GMT] [info] [<0.000.0>] 127.0.0.1 - - GET /heroes/_changes?style=all_docs&feed=longpoll&since=now&include_docs=true&heartbeat=60000&limit=20&seq_interval=20 200
[Sun, 12 Nov 2023 18:56:01 GMT] [info] [<0.000.0>] 127.0.0.1 - - PUT /heroes/ 412
[Sun, 12 Nov 2023 18:56:01 GMT] [info] [<0.000.0>] 127.0.0.1 - - GET /heroes/_changes?style=all_docs&feed=normal&include_docs=true&since=3&heartbeat=60000&limit=100&seq_interval=100 304
[Sun, 12 Nov 2023 18:56:50 GMT] [info] [<0.000.0>] 127.0.0.1 - - GET /heroes/_changes?style=all_docs&feed=longpoll&since=now&include_docs=true&heartbeat=60000&limit=20&seq_interval=20 200
[Sun, 12 Nov 2023 18:56:51 GMT] [info] [<0.000.0>] 127.0.0.1 - - PUT /heroes/ 412
[Sun, 12 Nov 2023 18:56:51 GMT] [info] [<0.000.0>] 127.0.0.1 - - GET /heroes/_changes?style=all_docs&feed=normal&include_docs=true&since=3&heartbeat=60000&limit=100&seq_interval=100 304
[Sun, 12 Nov 2023 19:14:03 GMT] [info] [<0.000.0>] pouchdb-server has started on http://0.0.0.0:10101/
[Sun, 12 Nov 2023 19:14:03 GMT] [info] [<0.000.0>] database is in-memory; no changes will be saved.
[Sun, 12 Nov 2023 19:14:03 GMT] [info] [<0.000.0>] database files will be saved to /tmp/pouchdb-server/
[Sun, 12 Nov 2023 19:14:03 GMT] [info] [<0.000.0>] navigate to http://0.0.0.0:10101/_utils for the Fauxton UI.
[Sun, 12 Nov 2023 19:14:07 GMT] [info] [<0.000.0>] 127.0.0.1 - - GET /heroes/_changes?style=all_docs&feed=longpoll&since=now&include_docs=true&heartbeat=60000&limit=20&seq_interval=20 404
[Sun, 12 Nov 2023 20:18:35 GMT] [info] [<0.000.0>] pouchdb-server has started on http://0.0.0.0:10101/
[Sun, 12 Nov 2023 20:18:35 GMT] [info] [<0.000.0>] database is in-memory; no changes will be saved.
[Sun, 12 Nov 2023 20:18:35 GMT] [info] [<0.000.0>] database files will be saved to /tmp/pouchdb-server/
[Sun, 12 Nov 2023 20:18:35 GMT] [info] [<0.000.0>] navigate to http://0.0.0.0:10101/_utils for the Fauxton UI.
[Sun, 12 Nov 2023 20:19:47 GMT] [info] [<0.000.0>] pouchdb-server has started on http://0.0.0.0:10101/
[Sun, 12 Nov 2023 20:19:47 GMT] [info] [<0.000.0>] database is in-memory; no changes will be saved.
[Sun, 12 Nov 2023 20:19:47 GMT] [info] [<0.000.0>] database files will be saved to /tmp/pouchdb-server/
[Sun, 12 Nov 2023 20:19:47 GMT] [info] [<0.000.0>] navigate to http://0.0.0.0:10101/_utils for the Fauxton UI.
[Sun, 12 Nov 2023 20:20:30 GMT] [info] [<0.000.0>] 127.0.0.1 - - PUT /heroes/ 201
[Sun, 12 Nov 2023 20:20:30 GMT] [info] [<0.000.0>] 127.0.0.1 - - GET /heroes/_changes?style=all_docs&feed=normal&include_docs=true&since=3&heartbeat=60000&limit=100&seq_interval=100 304
[Sun, 12 Nov 2023 20:20:31 GMT] [info] [<0.000.0>] 127.0.0.1 - - GET /heroes/_changes?style=all_docs&feed=longpoll&since=now&include_docs=true&heartbeat=60000&limit=20&seq_interval=20 200
[Sun, 12 Nov 2023 20:20:31 GMT] [info] [<0.000.0>] 127.0.0.1 - - PUT /heroes/ 412
[Sun, 12 Nov 2023 20:20:31 GMT] [info] [<0.000.0>] 127.0.0.1 - - GET /heroes/_changes?style=all_docs&feed=normal&include_docs=true&since=3&heartbeat=60000&limit=100&seq_interval=100 304
[Sun, 12 Nov 2023 20:20:51 GMT] [info] [<0.000.0>] 127.0.0.1 - - GET /heroes/_changes?style=all_docs&feed=longpoll&since=now&include_docs=true&heartbeat=60000&limit=20&seq_interval=20 200
[Sun, 12 Nov 2023 20:20:51 GMT] [info] [<0.000.0>] 127.0.0.1 - - PUT /heroes/ 412
[Sun, 12 Nov 2023 20:20:51 GMT] [info] [<0.000.0>] 127.0.0.1 - - GET /heroes/_changes?style=all_docs&feed=normal&include_docs=true&since=3&heartbeat=60000&limit=100&seq_interval=100 304
[Sun, 12 Nov 2023 20:20:56 GMT] [info] [<0.000.0>] 127.0.0.1 - - GET /heroes/_changes?style=all_docs&feed=longpoll&since=now&include_docs=true&heartbeat=60000&limit=20&seq_interval=20 200
[Sun, 12 Nov 2023 20:20:56 GMT] [info] [<0.000.0>] 127.0.0.1 - - PUT /heroes/ 412
[Sun, 12 Nov 2023 20:20:56 GMT] [info] [<0.000.0>] 127.0.0.1 - - GET /heroes/_changes?style=all_docs&feed=normal&include_docs=true&since=3&heartbeat=60000&limit=100&seq_interval=100 304
[Sun, 12 Nov 2023 20:21:12 GMT] [info] [<0.000.0>] 127.0.0.1 - - GET /heroes/_changes?style=all_docs&feed=longpoll&since=now&include_docs=true&heartbeat=60000&limit=20&seq_interval=20 200
[Sun, 12 Nov 2023 20:21:13 GMT] [info] [<0.000.0>] 127.0.0.1 - - PUT /heroes/ 412
[Sun, 12 Nov 2023 20:21:13 GMT] [info] [<0.000.0>] 127.0.0.1 - - GET /heroes/_changes?style=all_docs&feed=normal&include_docs=true&since=3&heartbeat=60000&limit=100&seq_interval=100 304
[Sun, 12 Nov 2023 20:21:20 GMT] [info] [<0.000.0>] 127.0.0.1 - - GET /heroes/_changes?style=all_docs&feed=longpoll&since=now&include_docs=true&heartbeat=60000&limit=20&seq_interval=20 200
[Sun, 12 Nov 2023 20:21:20 GMT] [info] [<0.000.0>] 127.0.0.1 - - PUT /heroes/ 412
[Sun, 12 Nov 2023 20:21:21 GMT] [info] [<0.000.0>] 127.0.0.1 - - GET /heroes/_changes?style=all_docs&feed=normal&include_docs=true&since=3&heartbeat=60000&limit=100&seq_interval=100 304
[Sun, 12 Nov 2023 20:21:48 GMT] [info] [<0.000.0>] 127.0.0.1 - - GET /heroes/_changes?style=all_docs&feed=longpoll&since=now&include_docs=true&heartbeat=60000&limit=20&seq_interval=20 200
[Sun, 12 Nov 2023 20:21:49 GMT] [info] [<0.000.0>] 127.0.0.1 - - PUT /heroes/ 412
[Sun, 12 Nov 2023 20:21:49 GMT] [info] [<0.000.0>] 127.0.0.1 - - GET /heroes/_changes?style=all_docs&feed=normal&include_docs=true&since=3&heartbeat=60000&limit=100&seq_interval=100 304
[Sun, 12 Nov 2023 20:22:00 GMT] [info] [<0.000.0>] 127.0.0.1 - - GET /heroes/_changes?style=all_docs&feed=longpoll&since=now&include_docs=true&heartbeat=60000&limit=20&seq_interval=20 200
[Sun, 12 Nov 2023 20:22:00 GMT] [info] [<0.000.0>] 127.0.0.1 - - PUT /heroes/ 412
[Sun, 12 Nov 2023 20:22:00 GMT] [info] [<0.000.0>] 127.0.0.1 - - GET /heroes/_changes?style=all_docs&feed=normal&include_docs=true&since=3&heartbeat=60000&limit=100&seq_interval=100 304
[Sun, 12 Nov 2023 20:22:22 GMT] [info] [<0.000.0>] 127.0.0.1 - - GET /heroes/_changes?style=all_docs&feed=longpoll&since=now&include_docs=true&heartbeat=60000&limit=20&seq_interval=20 200
[Sun, 12 Nov 2023 20:22:22 GMT] [info] [<0.000.0>] 127.0.0.1 - - PUT /heroes/ 412
[Sun, 12 Nov 2023 20:22:22 GMT] [info] [<0.000.0>] 127.0.0.1 - - GET /heroes/_changes?style=all_docs&feed=normal&include_docs=true&since=3&heartbeat=60000&limit=100&seq_interval=100 304
[Sun, 12 Nov 2023 20:22:24 GMT] [info] [<0.000.0>] 127.0.0.1 - - GET /heroes/_changes?style=all_docs&feed=longpoll&since=now&include_docs=true&heartbeat=60000&limit=20&seq_interval=20 200
[Sun, 12 Nov 2023 20:22:24 GMT] [info] [<0.000.0>] 127.0.0.1 - - PUT /heroes/ 412
[Sun, 12 Nov 2023 20:22:25 GMT] [info] [<0.000.0>] 127.0.0.1 - - GET /heroes/_changes?style=all_docs&feed=normal&include_docs=true&since=3&heartbeat=60000&limit=100&seq_interval=100 304
[Sun, 12 Nov 2023 20:25:30 GMT] [info] [<0.000.0>] 127.0.0.1 - - GET /heroes/_changes?style=all_docs&feed=longpoll&since=now&include_docs=true&heartbeat=60000&limit=20&seq_interval=20 200
[Sun, 12 Nov 2023 20:25:30 GMT] [info] [<0.000.0>] 127.0.0.1 - - PUT /heroes/ 412
[Sun, 12 Nov 2023 20:25:30 GMT] [info] [<0.000.0>] 127.0.0.1 - - GET /heroes/_changes?style=all_docs&feed=normal&include_docs=true&since=3&heartbeat=60000&limit=100&seq_interval=100 304
[Sun, 12 Nov 2023 20:26:33 GMT] [info] [<0.000.0>] 127.0.0.1 - - GET /heroes/_changes?style=all_docs&feed=longpoll&since=now&include_docs=true&heartbeat=60000&limit=20&seq_interval=20 200
[Sun, 12 Nov 2023 20:26:33 GMT] [info] [<0.000.0>] 127.0.0.1 - - PUT /heroes/ 412
[Sun, 12 Nov 2023 20:26:33 GMT] [info] [<0.000.0>] 127.0.0.1 - - GET /heroes/_changes?style=all_docs&feed=normal&include_docs=true&since=3&heartbeat=60000&limit=100&seq_interval=100 304
[Sun, 12 Nov 2023 20:26:36 GMT] [info] [<0.000.0>] 127.0.0.1 - - GET /heroes/_changes?style=all_docs&feed=longpoll&since=now&include_docs=true&heartbeat=60000&limit=20&seq_interval=20 200
[Sun, 12 Nov 2023 20:26:37 GMT] [info] [<0.000.0>] 127.0.0.1 - - PUT /heroes/ 412
[Sun, 12 Nov 2023 20:26:37 GMT] [info] [<0.000.0>] 127.0.0.1 - - GET /heroes/_changes?style=all_docs&feed=normal&include_docs=true&since=3&heartbeat=60000&limit=100&seq_interval=100 304
[Sun, 12 Nov 2023 20:27:54 GMT] [info] [<0.000.0>] 127.0.0.1 - - GET /heroes/_changes?style=all_docs&feed=longpoll&since=now&include_docs=true&heartbeat=60000&limit=20&seq_interval=20 200
[Sun, 12 Nov 2023 20:28:45 GMT] [info] [<0.000.0>] pouchdb-server has started on http://0.0.0.0:10101/
[Sun, 12 Nov 2023 20:28:45 GMT] [info] [<0.000.0>] database is in-memory; no changes will be saved.
[Sun, 12 Nov 2023 20:28:45 GMT] [info] [<0.000.0>] database files will be saved to /tmp/pouchdb-server/
[Sun, 12 Nov 2023 20:28:45 GMT] [info] [<0.000.0>] navigate to http://0.0.0.0:10101/_utils for the Fauxton UI.
[Sun, 12 Nov 2023 20:29:16 GMT] [info] [<0.000.0>] 127.0.0.1 - - PUT /heroes/ 201
[Sun, 12 Nov 2023 20:29:16 GMT] [info] [<0.000.0>] 127.0.0.1 - - GET /heroes/_changes?style=all_docs&feed=normal&include_docs=true&since=3&heartbeat=60000&limit=100&seq_interval=100 304
[Sun, 12 Nov 2023 20:29:21 GMT] [info] [<0.000.0>] 127.0.0.1 - - GET /heroes/_changes?style=all_docs&feed=longpoll&since=now&include_docs=true&heartbeat=60000&limit=20&seq_interval=20 200
[Sun, 12 Nov 2023 20:29:21 GMT] [info] [<0.000.0>] 127.0.0.1 - - PUT /heroes/ 412
[Sun, 12 Nov 2023 20:29:21 GMT] [info] [<0.000.0>] 127.0.0.1 - - GET /heroes/_changes?style=all_docs&feed=normal&include_docs=true&since=3&heartbeat=60000&limit=100&seq_interval=100 304
[Sun, 12 Nov 2023 20:29:27 GMT] [info] [<0.000.0>] pouchdb-server has started on http://0.0.0.0:10101/
[Sun, 12 Nov 2023 20:29:27 GMT] [info] [<0.000.0>] database is in-memory; no changes will be saved.
[Sun, 12 Nov 2023 20:29:27 GMT] [info] [<0.000.0>] database files will be saved to /tmp/pouchdb-server/
[Sun, 12 Nov 2023 20:29:27 GMT] [info] [<0.000.0>] navigate to http://0.0.0.0:10101/_utils for the Fauxton UI.
[Sun, 12 Nov 2023 20:29:28 GMT] [info] [<0.000.0>] 127.0.0.1 - - PUT /heroes/ 201
[Sun, 12 Nov 2023 20:29:28 GMT] [info] [<0.000.0>] 127.0.0.1 - - GET /heroes/_changes?style=all_docs&feed=normal&include_docs=true&since=3&heartbeat=60000&limit=100&seq_interval=100 304
[Sun, 12 Nov 2023 20:29:57 GMT] [info] [<0.000.0>] 127.0.0.1 - - GET /heroes/_changes?style=all_docs&feed=longpoll&since=now&include_docs=true&heartbeat=60000&limit=20&seq_interval=20 200
[Sun, 12 Nov 2023 20:29:57 GMT] [info] [<0.000.0>] 127.0.0.1 - - PUT /heroes/ 412
[Sun, 12 Nov 2023 20:29:57 GMT] [info] [<0.000.0>] 127.0.0.1 - - GET /heroes/_changes?style=all_docs&feed=normal&include_docs=true&since=3&heartbeat=60000&limit=100&seq_interval=100 304
[Sun, 12 Nov 2023 20:30:35 GMT] [info] [<0.000.0>] 127.0.0.1 - - GET /heroes/_changes?style=all_docs&feed=longpoll&since=now&include_docs=true&heartbeat=60000&limit=20&seq_interval=20 200
[Sun, 12 Nov 2023 20:30:35 GMT] [info] [<0.000.0>] 127.0.0.1 - - PUT /heroes/ 412
[Sun, 12 Nov 2023 20:30:35 GMT] [info] [<0.000.0>] 127.0.0.1 - - GET /heroes/_changes?style=all_docs&feed=normal&include_docs=true&since=3&heartbeat=60000&limit=100&seq_interval=100 304
[Sun, 12 Nov 2023 20:30:53 GMT] [info] [<0.000.0>] 127.0.0.1 - - GET /heroes/_changes?style=all_docs&feed=longpoll&since=now&include_docs=true&heartbeat=60000&limit=20&seq_interval=20 200
[Sun, 12 Nov 2023 20:30:53 GMT] [info] [<0.000.0>] 127.0.0.1 - - GET /heroes/_changes?style=all_docs&feed=longpoll&since=now&include_docs=true&heartbeat=60000&limit=20&seq_interval=20 200
[Sun, 12 Nov 2023 20:30:53 GMT] [info] [<0.000.0>] 127.0.0.1 - - PUT /heroes/ 412
[Sun, 12 Nov 2023 20:30:53 GMT] [info] [<0.000.0>] 127.0.0.1 - - GET /heroes/_changes?style=all_docs&feed=normal&include_docs=true&since=3&heartbeat=60000&limit=100&seq_interval=100 304
[Sun, 12 Nov 2023 20:31:03 GMT] [info] [<0.000.0>] 127.0.0.1 - - GET /heroes/_changes?style=all_docs&feed=longpoll&since=now&include_docs=true&heartbeat=60000&limit=20&seq_interval=20 200
[Sun, 12 Nov 2023 20:31:03 GMT] [info] [<0.000.0>] 127.0.0.1 - - PUT /heroes/ 412
[Sun, 12 Nov 2023 20:31:03 GMT] [info] [<0.000.0>] 127.0.0.1 - - GET /heroes/_changes?style=all_docs&feed=normal&include_docs=true&since=3&heartbeat=60000&limit=100&seq_interval=100 304
[Sun, 12 Nov 2023 20:31:34 GMT] [info] [<0.000.0>] 127.0.0.1 - - GET /heroes/_changes?style=all_docs&feed=longpoll&since=now&include_docs=true&heartbeat=60000&limit=20&seq_interval=20 200
[Sun, 12 Nov 2023 20:31:35 GMT] [info] [<0.000.0>] 127.0.0.1 - - PUT /heroes/ 412
[Sun, 12 Nov 2023 20:31:35 GMT] [info] [<0.000.0>] 127.0.0.1 - - GET /heroes/_changes?style=all_docs&feed=normal&include_docs=true&since=3&heartbeat=60000&limit=100&seq_interval=100 304
[Sun, 12 Nov 2023 20:32:07 GMT] [info] [<0.000.0>] 127.0.0.1 - - GET /heroes/_changes?style=all_docs&feed=longpoll&since=now&include_docs=true&heartbeat=60000&limit=20&seq_interval=20 200
[Sun, 12 Nov 2023 20:32:08 GMT] [info] [<0.000.0>] 127.0.0.1 - - PUT /heroes/ 412
[Sun, 12 Nov 2023 20:32:08 GMT] [info] [<0.000.0>] 127.0.0.1 - - GET /heroes/_changes?style=all_docs&feed=normal&include_docs=true&since=3&heartbeat=60000&limit=100&seq_interval=100 304
[Sun, 12 Nov 2023 20:32:18 GMT] [info] [<0.000.0>] 127.0.0.1 - - GET /heroes/_changes?style=all_docs&feed=longpoll&since=now&include_docs=true&heartbeat=60000&limit=20&seq_interval=20 200
[Sun, 12 Nov 2023 20:32:19 GMT] [info] [<0.000.0>] 127.0.0.1 - - PUT /heroes/ 412
[Sun, 12 Nov 2023 20:32:19 GMT] [info] [<0.000.0>] 127.0.0.1 - - GET /heroes/_changes?style=all_docs&feed=normal&include_docs=true&since=3&heartbeat=60000&limit=100&seq_interval=100 304
[Sun, 12 Nov 2023 20:32:30 GMT] [info] [<0.000.0>] 127.0.0.1 - - GET /heroes/_changes?style=all_docs&feed=longpoll&since=now&include_docs=true&heartbeat=60000&limit=20&seq_interval=20 200
[Sun, 12 Nov 2023 20:32:30 GMT] [info] [<0.000.0>] 127.0.0.1 - - PUT /heroes/ 412
[Sun, 12 Nov 2023 20:32:30 GMT] [info] [<0.000.0>] 127.0.0.1 - - GET /heroes/_changes?style=all_docs&feed=normal&include_docs=true&since=3&heartbeat=60000&limit=100&seq_interval=100 304
[Sun, 12 Nov 2023 20:32:48 GMT] [info] [<0.000.0>] 127.0.0.1 - - GET /heroes/_changes?style=all_docs&feed=longpoll&since=now&include_docs=true&heartbeat=60000&limit=20&seq_interval=20 200
[Sun, 12 Nov 2023 20:32:48 GMT] [info] [<0.000.0>] 127.0.0.1 - - PUT /heroes/ 412
[Sun, 12 Nov 2023 20:32:48 GMT] [info] [<0.000.0>] 127.0.0.1 - - GET /heroes/_changes?style=all_docs&feed=normal&include_docs=true&since=3&heartbeat=60000&limit=100&seq_interval=100 304
[Sun, 12 Nov 2023 20:32:55 GMT] [info] [<0.000.0>] 127.0.0.1 - - GET /heroes/_changes?style=all_docs&feed=longpoll&since=now&include_docs=true&heartbeat=60000&limit=20&seq_interval=20 200
[Sun, 12 Nov 2023 20:32:56 GMT] [info] [<0.000.0>] 127.0.0.1 - - PUT /heroes/ 412
[Sun, 12 Nov 2023 20:32:56 GMT] [info] [<0.000.0>] 127.0.0.1 - - GET /heroes/_changes?style=all_docs&feed=normal&include_docs=true&since=3&heartbeat=60000&limit=100&seq_interval=100 304
[Sun, 12 Nov 2023 20:34:04 GMT] [info] [<0.000.0>] 127.0.0.1 - - GET /heroes/_changes?style=all_docs&feed=longpoll&since=now&include_docs=true&heartbeat=60000&limit=20&seq_interval=20 200
[Sun, 12 Nov 2023 20:34:04 GMT] [info] [<0.000.0>] 127.0.0.1 - - PUT /heroes/ 412
[Sun, 12 Nov 2023 20:34:04 GMT] [info] [<0.000.0>] 127.0.0.1 - - GET /heroes/_changes?style=all_docs&feed=normal&include_docs=true&since=3&heartbeat=60000&limit=100&seq_interval=100 304
[Sun, 12 Nov 2023 20:34:29 GMT] [info] [<0.000.0>] 127.0.0.1 - - GET /heroes/_changes?style=all_docs&feed=longpoll&since=now&include_docs=true&heartbeat=60000&limit=20&seq_interval=20 200
[Sun, 12 Nov 2023 20:34:29 GMT] [info] [<0.000.0>] 127.0.0.1 - - PUT /heroes/ 412
[Sun, 12 Nov 2023 20:34:29 GMT] [info] [<0.000.0>] 127.0.0.1 - - GET /heroes/_changes?style=all_docs&feed=normal&include_docs=true&since=3&heartbeat=60000&limit=100&seq_interval=100 304
[Sun, 12 Nov 2023 20:34:54 GMT] [info] [<0.000.0>] 127.0.0.1 - - GET /heroes/_changes?style=all_docs&feed=longpoll&since=now&include_docs=true&heartbeat=60000&limit=20&seq_interval=20 200
[Sun, 12 Nov 2023 20:34:54 GMT] [info] [<0.000.0>] 127.0.0.1 - - PUT /heroes/ 412
[Sun, 12 Nov 2023 20:34:54 GMT] [info] [<0.000.0>] 127.0.0.1 - - GET /heroes/_changes?style=all_docs&feed=normal&include_docs=true&since=3&heartbeat=60000&limit=100&seq_interval=100 304
[Sun, 12 Nov 2023 20:35:19 GMT] [info] [<0.000.0>] 127.0.0.1 - - GET /heroes/_changes?style=all_docs&feed=longpoll&since=now&include_docs=true&heartbeat=60000&limit=20&seq_interval=20 200
[Sun, 12 Nov 2023 20:35:20 GMT] [info] [<0.000.0>] 127.0.0.1 - - PUT /heroes/ 412
[Sun, 12 Nov 2023 20:35:20 GMT] [info] [<0.000.0>] 127.0.0.1 - - GET /heroes/_changes?style=all_docs&feed=normal&include_docs=true&since=3&heartbeat=60000&limit=100&seq_interval=100 304
[Sun, 12 Nov 2023 20:35:51 GMT] [info] [<0.000.0>] 127.0.0.1 - - GET /heroes/_changes?style=all_docs&feed=longpoll&since=now&include_docs=true&heartbeat=60000&limit=20&seq_interval=20 200
[Sun, 12 Nov 2023 20:35:51 GMT] [info] [<0.000.0>] 127.0.0.1 - - PUT /heroes/ 412
[Sun, 12 Nov 2023 20:35:52 GMT] [info] [<0.000.0>] 127.0.0.1 - - GET /heroes/_changes?style=all_docs&feed=normal&include_docs=true&since=3&heartbeat=60000&limit=100&seq_interval=100 304
[Sun, 12 Nov 2023 20:35:56 GMT] [info] [<0.000.0>] 127.0.0.1 - - GET /heroes/_changes?style=all_docs&feed=longpoll&since=now&include_docs=true&heartbeat=60000&limit=20&seq_interval=20 200
[Sun, 12 Nov 2023 20:35:56 GMT] [info] [<0.000.0>] 127.0.0.1 - - PUT /heroes/ 412
[Sun, 12 Nov 2023 20:35:56 GMT] [info] [<0.000.0>] 127.0.0.1 - - GET /heroes/_changes?style=all_docs&feed=normal&include_docs=true&since=3&heartbeat=60000&limit=100&seq_interval=100 304
[Sun, 12 Nov 2023 20:36:13 GMT] [info] [<0.000.0>] pouchdb-server has started on http://0.0.0.0:10101/
[Sun, 12 Nov 2023 20:36:13 GMT] [info] [<0.000.0>] database is in-memory; no changes will be saved.
[Sun, 12 Nov 2023 20:36:13 GMT] [info] [<0.000.0>] database files will be saved to /tmp/pouchdb-server/
[Sun, 12 Nov 2023 20:36:13 GMT] [info] [<0.000.0>] navigate to http://0.0.0.0:10101/_utils for the Fauxton UI.
[Sun, 12 Nov 2023 20:36:14 GMT] [info] [<0.000.0>] 127.0.0.1 - - PUT /heroes/ 201
[Sun, 12 Nov 2023 20:36:14 GMT] [info] [<0.000.0>] 127.0.0.1 - - GET /heroes/_changes?style=all_docs&feed=normal&include_docs=true&since=3&heartbeat=60000&limit=100&seq_interval=100 304
[Sun, 12 Nov 2023 20:36:18 GMT] [info] [<0.000.0>] 127.0.0.1 - - GET /heroes/_changes?style=all_docs&feed=longpoll&since=now&include_docs=true&heartbeat=60000&limit=20&seq_interval=20 200
[Sun, 12 Nov 2023 20:36:18 GMT] [info] [<0.000.0>] 127.0.0.1 - - PUT /heroes/ 412
[Sun, 12 Nov 2023 20:36:18 GMT] [info] [<0.000.0>] 127.0.0.1 - - GET /heroes/_changes?style=all_docs&feed=normal&include_docs=true&since=3&heartbeat=60000&limit=100&seq_interval=100 304
[Sun, 12 Nov 2023 20:38:51 GMT] [info] [<0.000.0>] 127.0.0.1 - - GET /heroes/_changes?style=all_docs&feed=longpoll&since=now&include_docs=true&heartbeat=60000&limit=20&seq_interval=20 200
[Sun, 12 Nov 2023 20:38:51 GMT] [info] [<0.000.0>] 127.0.0.1 - - PUT /heroes/ 412
[Sun, 12 Nov 2023 20:38:51 GMT] [info] [<0.000.0>] 127.0.0.1 - - GET /heroes/_changes?style=all_docs&feed=normal&include_docs=true&since=3&heartbeat=60000&limit=100&seq_interval=100 304
[Sun, 12 Nov 2023 20:41:16 GMT] [info] [<0.000.0>] 127.0.0.1 - - GET /heroes/_changes?style=all_docs&feed=longpoll&since=now&include_docs=true&heartbeat=60000&limit=20&seq_interval=20 200
[Sun, 12 Nov 2023 20:41:19 GMT] [info] [<0.000.0>] 127.0.0.1 - - PUT /heroes/ 412
[Sun, 12 Nov 2023 20:41:19 GMT] [info] [<0.000.0>] 127.0.0.1 - - GET /heroes/_changes?style=all_docs&feed=normal&include_docs=true&since=3&heartbeat=60000&limit=100&seq_interval=100 304
[Sun, 12 Nov 2023 20:41:39 GMT] [info] [<0.000.0>] 127.0.0.1 - - GET /heroes/_changes?style=all_docs&feed=longpoll&since=now&include_docs=true&heartbeat=60000&limit=20&seq_interval=20 200
[Sun, 12 Nov 2023 20:41:46 GMT] [info] [<0.000.0>] 127.0.0.1 - - PUT /heroes/ 412
[Sun, 12 Nov 2023 20:41:46 GMT] [info] [<0.000.0>] 127.0.0.1 - - GET /heroes/_changes?style=all_docs&feed=normal&include_docs=true&since=3&heartbeat=60000&limit=100&seq_interval=100 304
[Sun, 12 Nov 2023 20:48:13 GMT] [info] [<0.000.0>] 127.0.0.1 - - GET /heroes/_changes?style=all_docs&feed=longpoll&since=now&include_docs=true&heartbeat=60000&limit=20&seq_interval=20 200
[Sun, 12 Nov 2023 20:48:14 GMT] [info] [<0.000.0>] 127.0.0.1 - - PUT /heroes/ 412
[Sun, 12 Nov 2023 20:48:14 GMT] [info] [<0.000.0>] 127.0.0.1 - - GET /heroes/_changes?style=all_docs&feed=normal&include_docs=true&since=3&heartbeat=60000&limit=100&seq_interval=100 304
[Sun, 12 Nov 2023 20:49:38 GMT] [info] [<0.000.0>] 127.0.0.1 - - GET /heroes/_changes?style=all_docs&feed=longpoll&since=now&include_docs=true&heartbeat=60000&limit=20&seq_interval=20 200
[Sun, 12 Nov 2023 20:49:38 GMT] [info] [<0.000.0>] 127.0.0.1 - - PUT /heroes/ 412
[Sun, 12 Nov 2023 20:49:38 GMT] [info] [<0.000.0>] 127.0.0.1 - - GET /heroes/_changes?style=all_docs&feed=normal&include_docs=true&since=3&heartbeat=60000&limit=100&seq_interval=100 304
[Sun, 12 Nov 2023 20:53:26 GMT] [info] [<0.000.0>] 127.0.0.1 - - GET /heroes/_changes?style=all_docs&feed=longpoll&since=now&include_docs=true&heartbeat=60000&limit=20&seq_interval=20 200
[Sun, 12 Nov 2023 20:53:26 GMT] [info] [<0.000.0>] 127.0.0.1 - - GET /heroes/_changes?style=all_docs&feed=longpoll&since=now&include_docs=true&heartbeat=60000&limit=20&seq_interval=20 200
[Sun, 12 Nov 2023 20:53:27 GMT] [info] [<0.000.0>] 127.0.0.1 - - PUT /heroes/ 412
[Sun, 12 Nov 2023 20:53:27 GMT] [info] [<0.000.0>] 127.0.0.1 - - GET /heroes/_changes?style=all_docs&feed=normal&include_docs=true&since=3&heartbeat=60000&limit=100&seq_interval=100 304
[Sun, 12 Nov 2023 20:56:23 GMT] [info] [<0.000.0>] 127.0.0.1 - - GET /heroes/_changes?style=all_docs&feed=longpoll&since=now&include_docs=true&heartbeat=60000&limit=20&seq_interval=20 200
[Sun, 12 Nov 2023 20:56:23 GMT] [info] [<0.000.0>] 127.0.0.1 - - PUT /heroes/ 412
[Sun, 12 Nov 2023 20:56:23 GMT] [info] [<0.000.0>] 127.0.0.1 - - GET /heroes/_changes?style=all_docs&feed=normal&include_docs=true&since=3&heartbeat=60000&limit=100&seq_interval=100 304
[Sun, 12 Nov 2023 20:56:28 GMT] [info] [<0.000.0>] 127.0.0.1 - - GET /heroes/_changes?style=all_docs&feed=longpoll&since=now&include_docs=true&heartbeat=60000&limit=20&seq_interval=20 200
[Sun, 12 Nov 2023 20:56:28 GMT] [info] [<0.000.0>] 127.0.0.1 - - GET /heroes/_changes?style=all_docs&feed=longpoll&since=now&include_docs=true&heartbeat=60000&limit=20&seq_interval=20 200
[Sun, 12 Nov 2023 20:56:29 GMT] [info] [<0.000.0>] 127.0.0.1 - - PUT /heroes/ 412
[Sun, 12 Nov 2023 20:56:29 GMT] [info] [<0.000.0>] 127.0.0.1 - - GET /heroes/_changes?style=all_docs&feed=normal&include_docs=true&since=3&heartbeat=60000&limit=100&seq_interval=100 304
[Sun, 12 Nov 2023 20:57:01 GMT] [info] [<0.000.0>] 127.0.0.1 - - GET /heroes/_changes?style=all_docs&feed=longpoll&since=now&include_docs=true&heartbeat=60000&limit=20&seq_interval=20 200
[Sun, 12 Nov 2023 20:57:01 GMT] [info] [<0.000.0>] 127.0.0.1 - - PUT /heroes/ 412
[Sun, 12 Nov 2023 20:57:01 GMT] [info] [<0.000.0>] 127.0.0.1 - - GET /heroes/_changes?style=all_docs&feed=normal&include_docs=true&since=3&heartbeat=60000&limit=100&seq_interval=100 304
[Sun, 12 Nov 2023 21:08:43 GMT] [info] [<0.000.0>] pouchdb-server has started on http://0.0.0.0:10101/
[Sun, 12 Nov 2023 21:08:43 GMT] [info] [<0.000.0>] database is in-memory; no changes will be saved.
[Sun, 12 Nov 2023 21:08:43 GMT] [info] [<0.000.0>] database files will be saved to /tmp/pouchdb-server/
[Sun, 12 Nov 2023 21:08:43 GMT] [info] [<0.000.0>] navigate to http://0.0.0.0:10101/_utils for the Fauxton UI.
[Sun, 12 Nov 2023 21:08:45 GMT] [info] [<0.000.0>] 127.0.0.1 - - GET /heroes/_changes?style=all_docs&feed=longpoll&since=now&include_docs=true&heartbeat=60000&limit=20&seq_interval=20 404
